{
  "photos": {
    "page": 1,
    "pages": 51313,
    "perpage": 5,
    "total": "256561",
    "photo": [
      {
        "id": "26148833976",
        "owner": "28587936@N03",
        "secret": "b7b12bfbec",
        "server": "1702",
        "farm": 2,
        "title": "Red Barrels",
        "ispublic": 1,
        "isfriend": 0,
        "isfamily": 0
      },
      {
        "id": "25572146183",
        "owner": "28587936@N03",
        "secret": "4c813b6009",
        "server": "1612",
        "farm": 2,
        "title": "Nesting Instinct",
        "ispublic": 1,
        "isfriend": 0,
        "isfamily": 0
      },
      {
        "id": "26174796475",
        "owner": "28587936@N03",
        "secret": "14a2a0d07f",
        "server": "1524",
        "farm": 2,
        "title": "Danger",
        "ispublic": 1,
        "isfriend": 0,
        "isfamily": 0
      },
      {
        "id": "26082293032",
        "owner": "39803308@N08",
        "secret": "6a7a4b1d6f",
        "server": "1510",
        "farm": 2,
        "title": "old city hall",
        "ispublic": 1,
        "isfriend": 0,
        "isfamily": 0
      },
      {
        "id": "25569998114",
        "owner": "39803308@N08",
        "secret": "cf037177d9",
        "server": "1482",
        "farm": 2,
        "title": "Commerce Court",
        "ispublic": 1,
        "isfriend": 0,
        "isfamily": 0
      }
    ]
  },
  "stat": "ok"
}